^C:\PROJECTS\COCOS\TENG3\PROJ.WIN32\DEBUG.WIN32\APPDELEGATE.OBJ|C:\PROJECTS\COCOS\TENG3\PROJ.WIN32\DEBUG.WIN32\CMDMESSAGE.OBJ|C:\PROJECTS\COCOS\TENG3\PROJ.WIN32\DEBUG.WIN32\COMMAND.OBJ|C:\PROJECTS\COCOS\TENG3\PROJ.WIN32\DEBUG.WIN32\EXCEPTION.OBJ|C:\PROJECTS\COCOS\TENG3\PROJ.WIN32\DEBUG.WIN32\GAME.RES|C:\PROJECTS\COCOS\TENG3\PROJ.WIN32\DEBUG.WIN32\HELLOWORLDSCENE.OBJ|C:\PROJECTS\COCOS\TENG3\PROJ.WIN32\DEBUG.WIN32\IMAGEUTIL.OBJ|C:\PROJECTS\COCOS\TENG3\PROJ.WIN32\DEBUG.WIN32\LIBBOX2D.LIB|C:\PROJECTS\COCOS\TENG3\PROJ.WIN32\DEBUG.WIN32\LIBCOCOS2D.LIB|C:\PROJECTS\COCOS\TENG3\PROJ.WIN32\DEBUG.WIN32\LIBSPINE.LIB|C:\PROJECTS\COCOS\TENG3\PROJ.WIN32\DEBUG.WIN32\MAIN.OBJ|C:\PROJECTS\COCOS\TENG3\PROJ.WIN32\DEBUG.WIN32\MOUSEOVERMENUITEM.OBJ|C:\PROJECTS\COCOS\TENG3\PROJ.WIN32\DEBUG.WIN32\SCENEDEBUG.OBJ|C:\PROJECTS\COCOS\TENG3\PROJ.WIN32\DEBUG.WIN32\SCENESCENARIO.OBJ|C:\PROJECTS\COCOS\TENG3\PROJ.WIN32\DEBUG.WIN32\SCENETITLE.OBJ|C:\PROJECTS\COCOS\TENG3\PROJ.WIN32\DEBUG.WIN32\SCRIPT.OBJ|C:\PROJECTS\COCOS\TENG3\PROJ.WIN32\DEBUG.WIN32\SCROLLBARVIEW.OBJ|C:\PROJECTS\COCOS\TENG3\PROJ.WIN32\DEBUG.WIN32\TEXTBOX.OBJ
C:\WINDOWS\GLOBALIZATION\SORTING\SORTDEFAULT.NLS
C:\PROGRAM FILES (X86)\MICROSOFT SDKS\WINDOWS\V7.1A\LIB\OPENGL32.LIB
C:\PROJECTS\COCOS\TENG3\PROJ.WIN32\DEBUG.WIN32\GLEW32.LIB
C:\PROJECTS\COCOS\TENG3\PROJ.WIN32\DEBUG.WIN32\LIBZLIB.LIB
C:\PROJECTS\COCOS\TENG3\PROJ.WIN32\DEBUG.WIN32\LIBPNG.LIB
C:\PROJECTS\COCOS\TENG3\PROJ.WIN32\DEBUG.WIN32\LIBJPEG.LIB
C:\PROJECTS\COCOS\TENG3\PROJ.WIN32\DEBUG.WIN32\LIBTIFF.LIB
C:\PROJECTS\COCOS\TENG3\PROJ.WIN32\DEBUG.WIN32\LIBWEBP.LIB
C:\PROJECTS\COCOS\TENG3\PROJ.WIN32\DEBUG.WIN32\LIBICONV.LIB
C:\PROJECTS\COCOS\TENG3\PROJ.WIN32\DEBUG.WIN32\GLFW3.LIB
C:\PROJECTS\COCOS\TENG3\PROJ.WIN32\DEBUG.WIN32\FREETYPE250.LIB
C:\PROGRAM FILES (X86)\MICROSOFT SDKS\WINDOWS\V7.1A\LIB\WINMM.LIB
C:\PROGRAM FILES (X86)\MICROSOFT SDKS\WINDOWS\V7.1A\LIB\WS2_32.LIB
C:\PROJECTS\COCOS\TENG3\PROJ.WIN32\DEBUG.WIN32\LIBCHIPMUNK.LIB
C:\PROJECTS\COCOS\TENG3\PROJ.WIN32\DEBUG.WIN32\LIBBOX2D.LIB
C:\PROJECTS\COCOS\TENG3\PROJ.WIN32\DEBUG.WIN32\LIBSPINE.LIB
C:\PROGRAM FILES (X86)\MICROSOFT SDKS\WINDOWS\V7.1A\LIB\KERNEL32.LIB
C:\PROGRAM FILES (X86)\MICROSOFT SDKS\WINDOWS\V7.1A\LIB\USER32.LIB
C:\PROGRAM FILES (X86)\MICROSOFT SDKS\WINDOWS\V7.1A\LIB\GDI32.LIB
C:\PROGRAM FILES (X86)\MICROSOFT SDKS\WINDOWS\V7.1A\LIB\WINSPOOL.LIB
C:\PROGRAM FILES (X86)\MICROSOFT SDKS\WINDOWS\V7.1A\LIB\COMDLG32.LIB
C:\PROGRAM FILES (X86)\MICROSOFT SDKS\WINDOWS\V7.1A\LIB\ADVAPI32.LIB
C:\PROGRAM FILES (X86)\MICROSOFT SDKS\WINDOWS\V7.1A\LIB\SHELL32.LIB
C:\PROGRAM FILES (X86)\MICROSOFT SDKS\WINDOWS\V7.1A\LIB\OLE32.LIB
C:\PROGRAM FILES (X86)\MICROSOFT SDKS\WINDOWS\V7.1A\LIB\OLEAUT32.LIB
C:\PROGRAM FILES (X86)\MICROSOFT SDKS\WINDOWS\V7.1A\LIB\UUID.LIB
C:\PROGRAM FILES (X86)\MICROSOFT SDKS\WINDOWS\V7.1A\LIB\ODBC32.LIB
C:\PROGRAM FILES (X86)\MICROSOFT SDKS\WINDOWS\V7.1A\LIB\ODBCCP32.LIB
C:\PROJECTS\COCOS\TENG3\PROJ.WIN32\DEBUG.WIN32\GAME.RES
C:\PROJECTS\COCOS\TENG3\PROJ.WIN32\DEBUG.WIN32\APPDELEGATE.OBJ
C:\PROJECTS\COCOS\TENG3\PROJ.WIN32\DEBUG.WIN32\CMDMESSAGE.OBJ
C:\PROJECTS\COCOS\TENG3\PROJ.WIN32\DEBUG.WIN32\COMMAND.OBJ
C:\PROJECTS\COCOS\TENG3\PROJ.WIN32\DEBUG.WIN32\SCRIPT.OBJ
C:\PROJECTS\COCOS\TENG3\PROJ.WIN32\DEBUG.WIN32\EXCEPTION.OBJ
C:\PROJECTS\COCOS\TENG3\PROJ.WIN32\DEBUG.WIN32\HELLOWORLDSCENE.OBJ
C:\PROJECTS\COCOS\TENG3\PROJ.WIN32\DEBUG.WIN32\SCROLLBARVIEW.OBJ
C:\PROJECTS\COCOS\TENG3\PROJ.WIN32\DEBUG.WIN32\SCENEDEBUG.OBJ
C:\PROJECTS\COCOS\TENG3\PROJ.WIN32\DEBUG.WIN32\SCENESCENARIO.OBJ
C:\PROJECTS\COCOS\TENG3\PROJ.WIN32\DEBUG.WIN32\SCENETITLE.OBJ
C:\PROJECTS\COCOS\TENG3\PROJ.WIN32\DEBUG.WIN32\TEXTBOX.OBJ
C:\PROJECTS\COCOS\TENG3\PROJ.WIN32\DEBUG.WIN32\IMAGEUTIL.OBJ
C:\PROJECTS\COCOS\TENG3\PROJ.WIN32\DEBUG.WIN32\MOUSEOVERMENUITEM.OBJ
C:\PROJECTS\COCOS\TENG3\PROJ.WIN32\DEBUG.WIN32\MAIN.OBJ
C:\PROJECTS\COCOS\TENG3\PROJ.WIN32\DEBUG.WIN32\LIBCOCOS2D.LIB
C:\WINDOWS\SYSTEM32\TZRES.DLL
C:\PROGRAM FILES (X86)\MICROSOFT VISUAL STUDIO 12.0\VC\LIB\MSVCPRTD.LIB
C:\PROGRAM FILES (X86)\MICROSOFT VISUAL STUDIO 12.0\VC\LIB\MSVCRTD.LIB
C:\PROGRAM FILES (X86)\MICROSOFT VISUAL STUDIO 12.0\VC\LIB\OLDNAMES.LIB
C:\PROGRAM FILES (X86)\MICROSOFT VISUAL STUDIO 12.0\VC\BIN\MSPDBSRV.EXE
