^C:\PROJECTS\COCOS\TENG3\COCOS2D\COCOS\EDITOR-SUPPORT\SPINE\ANIMATION.C
/c /IC:\projects\Cocos\TENG3\cocos2d\cocos\2d\..\..\ /IC:\projects\Cocos\TENG3\cocos2d\cocos\2d\..\..\cocos\audio\include /I"C:\projects\Cocos\TENG3\cocos2d\cocos\2d\..\..\cocos\editor-support" /IC:\projects\Cocos\TENG3\cocos2d\cocos\2d\..\..\extensions /I"C:\projects\Cocos\TENG3\cocos2d\cocos\2d\..\..\cocos\editor-support" /IC:\projects\Cocos\TENG3\cocos2d\cocos\2d\..\..\cocos /IC:\projects\Cocos\TENG3\cocos2d\cocos\2d\..\..\cocos\platform /IC:\projects\Cocos\TENG3\cocos2d\cocos\2d\..\..\cocos\platform\desktop /IC:\projects\Cocos\TENG3\cocos2d\cocos\2d\..\..\external\glfw3\include\win32 /I"C:\projects\Cocos\TENG3\cocos2d\cocos\2d\..\..\external\win32-specific\gles\include\OGLES" /ZI /nologo /W3 /WX- /Od /Oy- /D WIN32 /D _DEBUG /D _WINDOWS /D _LIB /D COCOS2DXWIN32_EXPORTS /D GL_GLEXT_PROTOTYPES /D COCOS2D_DEBUG=1 /D _CRT_SECURE_NO_WARNINGS /D _SCL_SECURE_NO_WARNINGS /D _VARIADIC_MAX=10 /D _USING_V110_SDK71_ /D _UNICODE /D UNICODE /Gm- /EHsc /RTC1 /MDd /GS /fp:precise /Zc:wchar_t /Zc:forScope /Fo"DEBUG.WIN32\\" /Fd"DEBUG.WIN32\VC120.PDB" /Gd /TC /wd4267 /wd4251 /wd4244 /analyze- C:\PROJECTS\COCOS\TENG3\COCOS2D\COCOS\EDITOR-SUPPORT\SPINE\ANIMATION.C
^C:\PROJECTS\COCOS\TENG3\COCOS2D\COCOS\EDITOR-SUPPORT\SPINE\ANIMATIONSTATE.C
/c /IC:\projects\Cocos\TENG3\cocos2d\cocos\2d\..\..\ /IC:\projects\Cocos\TENG3\cocos2d\cocos\2d\..\..\cocos\audio\include /I"C:\projects\Cocos\TENG3\cocos2d\cocos\2d\..\..\cocos\editor-support" /IC:\projects\Cocos\TENG3\cocos2d\cocos\2d\..\..\extensions /I"C:\projects\Cocos\TENG3\cocos2d\cocos\2d\..\..\cocos\editor-support" /IC:\projects\Cocos\TENG3\cocos2d\cocos\2d\..\..\cocos /IC:\projects\Cocos\TENG3\cocos2d\cocos\2d\..\..\cocos\platform /IC:\projects\Cocos\TENG3\cocos2d\cocos\2d\..\..\cocos\platform\desktop /IC:\projects\Cocos\TENG3\cocos2d\cocos\2d\..\..\external\glfw3\include\win32 /I"C:\projects\Cocos\TENG3\cocos2d\cocos\2d\..\..\external\win32-specific\gles\include\OGLES" /ZI /nologo /W3 /WX- /Od /Oy- /D WIN32 /D _DEBUG /D _WINDOWS /D _LIB /D COCOS2DXWIN32_EXPORTS /D GL_GLEXT_PROTOTYPES /D COCOS2D_DEBUG=1 /D _CRT_SECURE_NO_WARNINGS /D _SCL_SECURE_NO_WARNINGS /D _VARIADIC_MAX=10 /D _USING_V110_SDK71_ /D _UNICODE /D UNICODE /Gm- /EHsc /RTC1 /MDd /GS /fp:precise /Zc:wchar_t /Zc:forScope /Fo"DEBUG.WIN32\\" /Fd"DEBUG.WIN32\VC120.PDB" /Gd /TC /wd4267 /wd4251 /wd4244 /analyze- C:\PROJECTS\COCOS\TENG3\COCOS2D\COCOS\EDITOR-SUPPORT\SPINE\ANIMATIONSTATE.C
^C:\PROJECTS\COCOS\TENG3\COCOS2D\COCOS\EDITOR-SUPPORT\SPINE\ANIMATIONSTATEDATA.C
/c /IC:\projects\Cocos\TENG3\cocos2d\cocos\2d\..\..\ /IC:\projects\Cocos\TENG3\cocos2d\cocos\2d\..\..\cocos\audio\include /I"C:\projects\Cocos\TENG3\cocos2d\cocos\2d\..\..\cocos\editor-support" /IC:\projects\Cocos\TENG3\cocos2d\cocos\2d\..\..\extensions /I"C:\projects\Cocos\TENG3\cocos2d\cocos\2d\..\..\cocos\editor-support" /IC:\projects\Cocos\TENG3\cocos2d\cocos\2d\..\..\cocos /IC:\projects\Cocos\TENG3\cocos2d\cocos\2d\..\..\cocos\platform /IC:\projects\Cocos\TENG3\cocos2d\cocos\2d\..\..\cocos\platform\desktop /IC:\projects\Cocos\TENG3\cocos2d\cocos\2d\..\..\external\glfw3\include\win32 /I"C:\projects\Cocos\TENG3\cocos2d\cocos\2d\..\..\external\win32-specific\gles\include\OGLES" /ZI /nologo /W3 /WX- /Od /Oy- /D WIN32 /D _DEBUG /D _WINDOWS /D _LIB /D COCOS2DXWIN32_EXPORTS /D GL_GLEXT_PROTOTYPES /D COCOS2D_DEBUG=1 /D _CRT_SECURE_NO_WARNINGS /D _SCL_SECURE_NO_WARNINGS /D _VARIADIC_MAX=10 /D _USING_V110_SDK71_ /D _UNICODE /D UNICODE /Gm- /EHsc /RTC1 /MDd /GS /fp:precise /Zc:wchar_t /Zc:forScope /Fo"DEBUG.WIN32\\" /Fd"DEBUG.WIN32\VC120.PDB" /Gd /TC /wd4267 /wd4251 /wd4244 /analyze- C:\PROJECTS\COCOS\TENG3\COCOS2D\COCOS\EDITOR-SUPPORT\SPINE\ANIMATIONSTATEDATA.C
^C:\PROJECTS\COCOS\TENG3\COCOS2D\COCOS\EDITOR-SUPPORT\SPINE\ATLAS.C
/c /IC:\projects\Cocos\TENG3\cocos2d\cocos\2d\..\..\ /IC:\projects\Cocos\TENG3\cocos2d\cocos\2d\..\..\cocos\audio\include /I"C:\projects\Cocos\TENG3\cocos2d\cocos\2d\..\..\cocos\editor-support" /IC:\projects\Cocos\TENG3\cocos2d\cocos\2d\..\..\extensions /I"C:\projects\Cocos\TENG3\cocos2d\cocos\2d\..\..\cocos\editor-support" /IC:\projects\Cocos\TENG3\cocos2d\cocos\2d\..\..\cocos /IC:\projects\Cocos\TENG3\cocos2d\cocos\2d\..\..\cocos\platform /IC:\projects\Cocos\TENG3\cocos2d\cocos\2d\..\..\cocos\platform\desktop /IC:\projects\Cocos\TENG3\cocos2d\cocos\2d\..\..\external\glfw3\include\win32 /I"C:\projects\Cocos\TENG3\cocos2d\cocos\2d\..\..\external\win32-specific\gles\include\OGLES" /ZI /nologo /W3 /WX- /Od /Oy- /D WIN32 /D _DEBUG /D _WINDOWS /D _LIB /D COCOS2DXWIN32_EXPORTS /D GL_GLEXT_PROTOTYPES /D COCOS2D_DEBUG=1 /D _CRT_SECURE_NO_WARNINGS /D _SCL_SECURE_NO_WARNINGS /D _VARIADIC_MAX=10 /D _USING_V110_SDK71_ /D _UNICODE /D UNICODE /Gm- /EHsc /RTC1 /MDd /GS /fp:precise /Zc:wchar_t /Zc:forScope /Fo"DEBUG.WIN32\\" /Fd"DEBUG.WIN32\VC120.PDB" /Gd /TC /wd4267 /wd4251 /wd4244 /analyze- C:\PROJECTS\COCOS\TENG3\COCOS2D\COCOS\EDITOR-SUPPORT\SPINE\ATLAS.C
^C:\PROJECTS\COCOS\TENG3\COCOS2D\COCOS\EDITOR-SUPPORT\SPINE\ATLASATTACHMENTLOADER.C
/c /IC:\projects\Cocos\TENG3\cocos2d\cocos\2d\..\..\ /IC:\projects\Cocos\TENG3\cocos2d\cocos\2d\..\..\cocos\audio\include /I"C:\projects\Cocos\TENG3\cocos2d\cocos\2d\..\..\cocos\editor-support" /IC:\projects\Cocos\TENG3\cocos2d\cocos\2d\..\..\extensions /I"C:\projects\Cocos\TENG3\cocos2d\cocos\2d\..\..\cocos\editor-support" /IC:\projects\Cocos\TENG3\cocos2d\cocos\2d\..\..\cocos /IC:\projects\Cocos\TENG3\cocos2d\cocos\2d\..\..\cocos\platform /IC:\projects\Cocos\TENG3\cocos2d\cocos\2d\..\..\cocos\platform\desktop /IC:\projects\Cocos\TENG3\cocos2d\cocos\2d\..\..\external\glfw3\include\win32 /I"C:\projects\Cocos\TENG3\cocos2d\cocos\2d\..\..\external\win32-specific\gles\include\OGLES" /ZI /nologo /W3 /WX- /Od /Oy- /D WIN32 /D _DEBUG /D _WINDOWS /D _LIB /D COCOS2DXWIN32_EXPORTS /D GL_GLEXT_PROTOTYPES /D COCOS2D_DEBUG=1 /D _CRT_SECURE_NO_WARNINGS /D _SCL_SECURE_NO_WARNINGS /D _VARIADIC_MAX=10 /D _USING_V110_SDK71_ /D _UNICODE /D UNICODE /Gm- /EHsc /RTC1 /MDd /GS /fp:precise /Zc:wchar_t /Zc:forScope /Fo"DEBUG.WIN32\\" /Fd"DEBUG.WIN32\VC120.PDB" /Gd /TC /wd4267 /wd4251 /wd4244 /analyze- C:\PROJECTS\COCOS\TENG3\COCOS2D\COCOS\EDITOR-SUPPORT\SPINE\ATLASATTACHMENTLOADER.C
^C:\PROJECTS\COCOS\TENG3\COCOS2D\COCOS\EDITOR-SUPPORT\SPINE\ATTACHMENT.C
/c /IC:\projects\Cocos\TENG3\cocos2d\cocos\2d\..\..\ /IC:\projects\Cocos\TENG3\cocos2d\cocos\2d\..\..\cocos\audio\include /I"C:\projects\Cocos\TENG3\cocos2d\cocos\2d\..\..\cocos\editor-support" /IC:\projects\Cocos\TENG3\cocos2d\cocos\2d\..\..\extensions /I"C:\projects\Cocos\TENG3\cocos2d\cocos\2d\..\..\cocos\editor-support" /IC:\projects\Cocos\TENG3\cocos2d\cocos\2d\..\..\cocos /IC:\projects\Cocos\TENG3\cocos2d\cocos\2d\..\..\cocos\platform /IC:\projects\Cocos\TENG3\cocos2d\cocos\2d\..\..\cocos\platform\desktop /IC:\projects\Cocos\TENG3\cocos2d\cocos\2d\..\..\external\glfw3\include\win32 /I"C:\projects\Cocos\TENG3\cocos2d\cocos\2d\..\..\external\win32-specific\gles\include\OGLES" /ZI /nologo /W3 /WX- /Od /Oy- /D WIN32 /D _DEBUG /D _WINDOWS /D _LIB /D COCOS2DXWIN32_EXPORTS /D GL_GLEXT_PROTOTYPES /D COCOS2D_DEBUG=1 /D _CRT_SECURE_NO_WARNINGS /D _SCL_SECURE_NO_WARNINGS /D _VARIADIC_MAX=10 /D _USING_V110_SDK71_ /D _UNICODE /D UNICODE /Gm- /EHsc /RTC1 /MDd /GS /fp:precise /Zc:wchar_t /Zc:forScope /Fo"DEBUG.WIN32\\" /Fd"DEBUG.WIN32\VC120.PDB" /Gd /TC /wd4267 /wd4251 /wd4244 /analyze- C:\PROJECTS\COCOS\TENG3\COCOS2D\COCOS\EDITOR-SUPPORT\SPINE\ATTACHMENT.C
^C:\PROJECTS\COCOS\TENG3\COCOS2D\COCOS\EDITOR-SUPPORT\SPINE\ATTACHMENTLOADER.C
/c /IC:\projects\Cocos\TENG3\cocos2d\cocos\2d\..\..\ /IC:\projects\Cocos\TENG3\cocos2d\cocos\2d\..\..\cocos\audio\include /I"C:\projects\Cocos\TENG3\cocos2d\cocos\2d\..\..\cocos\editor-support" /IC:\projects\Cocos\TENG3\cocos2d\cocos\2d\..\..\extensions /I"C:\projects\Cocos\TENG3\cocos2d\cocos\2d\..\..\cocos\editor-support" /IC:\projects\Cocos\TENG3\cocos2d\cocos\2d\..\..\cocos /IC:\projects\Cocos\TENG3\cocos2d\cocos\2d\..\..\cocos\platform /IC:\projects\Cocos\TENG3\cocos2d\cocos\2d\..\..\cocos\platform\desktop /IC:\projects\Cocos\TENG3\cocos2d\cocos\2d\..\..\external\glfw3\include\win32 /I"C:\projects\Cocos\TENG3\cocos2d\cocos\2d\..\..\external\win32-specific\gles\include\OGLES" /ZI /nologo /W3 /WX- /Od /Oy- /D WIN32 /D _DEBUG /D _WINDOWS /D _LIB /D COCOS2DXWIN32_EXPORTS /D GL_GLEXT_PROTOTYPES /D COCOS2D_DEBUG=1 /D _CRT_SECURE_NO_WARNINGS /D _SCL_SECURE_NO_WARNINGS /D _VARIADIC_MAX=10 /D _USING_V110_SDK71_ /D _UNICODE /D UNICODE /Gm- /EHsc /RTC1 /MDd /GS /fp:precise /Zc:wchar_t /Zc:forScope /Fo"DEBUG.WIN32\\" /Fd"DEBUG.WIN32\VC120.PDB" /Gd /TC /wd4267 /wd4251 /wd4244 /analyze- C:\PROJECTS\COCOS\TENG3\COCOS2D\COCOS\EDITOR-SUPPORT\SPINE\ATTACHMENTLOADER.C
^C:\PROJECTS\COCOS\TENG3\COCOS2D\COCOS\EDITOR-SUPPORT\SPINE\BONE.C
/c /IC:\projects\Cocos\TENG3\cocos2d\cocos\2d\..\..\ /IC:\projects\Cocos\TENG3\cocos2d\cocos\2d\..\..\cocos\audio\include /I"C:\projects\Cocos\TENG3\cocos2d\cocos\2d\..\..\cocos\editor-support" /IC:\projects\Cocos\TENG3\cocos2d\cocos\2d\..\..\extensions /I"C:\projects\Cocos\TENG3\cocos2d\cocos\2d\..\..\cocos\editor-support" /IC:\projects\Cocos\TENG3\cocos2d\cocos\2d\..\..\cocos /IC:\projects\Cocos\TENG3\cocos2d\cocos\2d\..\..\cocos\platform /IC:\projects\Cocos\TENG3\cocos2d\cocos\2d\..\..\cocos\platform\desktop /IC:\projects\Cocos\TENG3\cocos2d\cocos\2d\..\..\external\glfw3\include\win32 /I"C:\projects\Cocos\TENG3\cocos2d\cocos\2d\..\..\external\win32-specific\gles\include\OGLES" /ZI /nologo /W3 /WX- /Od /Oy- /D WIN32 /D _DEBUG /D _WINDOWS /D _LIB /D COCOS2DXWIN32_EXPORTS /D GL_GLEXT_PROTOTYPES /D COCOS2D_DEBUG=1 /D _CRT_SECURE_NO_WARNINGS /D _SCL_SECURE_NO_WARNINGS /D _VARIADIC_MAX=10 /D _USING_V110_SDK71_ /D _UNICODE /D UNICODE /Gm- /EHsc /RTC1 /MDd /GS /fp:precise /Zc:wchar_t /Zc:forScope /Fo"DEBUG.WIN32\\" /Fd"DEBUG.WIN32\VC120.PDB" /Gd /TC /wd4267 /wd4251 /wd4244 /analyze- C:\PROJECTS\COCOS\TENG3\COCOS2D\COCOS\EDITOR-SUPPORT\SPINE\BONE.C
^C:\PROJECTS\COCOS\TENG3\COCOS2D\COCOS\EDITOR-SUPPORT\SPINE\BONEDATA.C
/c /IC:\projects\Cocos\TENG3\cocos2d\cocos\2d\..\..\ /IC:\projects\Cocos\TENG3\cocos2d\cocos\2d\..\..\cocos\audio\include /I"C:\projects\Cocos\TENG3\cocos2d\cocos\2d\..\..\cocos\editor-support" /IC:\projects\Cocos\TENG3\cocos2d\cocos\2d\..\..\extensions /I"C:\projects\Cocos\TENG3\cocos2d\cocos\2d\..\..\cocos\editor-support" /IC:\projects\Cocos\TENG3\cocos2d\cocos\2d\..\..\cocos /IC:\projects\Cocos\TENG3\cocos2d\cocos\2d\..\..\cocos\platform /IC:\projects\Cocos\TENG3\cocos2d\cocos\2d\..\..\cocos\platform\desktop /IC:\projects\Cocos\TENG3\cocos2d\cocos\2d\..\..\external\glfw3\include\win32 /I"C:\projects\Cocos\TENG3\cocos2d\cocos\2d\..\..\external\win32-specific\gles\include\OGLES" /ZI /nologo /W3 /WX- /Od /Oy- /D WIN32 /D _DEBUG /D _WINDOWS /D _LIB /D COCOS2DXWIN32_EXPORTS /D GL_GLEXT_PROTOTYPES /D COCOS2D_DEBUG=1 /D _CRT_SECURE_NO_WARNINGS /D _SCL_SECURE_NO_WARNINGS /D _VARIADIC_MAX=10 /D _USING_V110_SDK71_ /D _UNICODE /D UNICODE /Gm- /EHsc /RTC1 /MDd /GS /fp:precise /Zc:wchar_t /Zc:forScope /Fo"DEBUG.WIN32\\" /Fd"DEBUG.WIN32\VC120.PDB" /Gd /TC /wd4267 /wd4251 /wd4244 /analyze- C:\PROJECTS\COCOS\TENG3\COCOS2D\COCOS\EDITOR-SUPPORT\SPINE\BONEDATA.C
^C:\PROJECTS\COCOS\TENG3\COCOS2D\COCOS\EDITOR-SUPPORT\SPINE\BOUNDINGBOXATTACHMENT.C
/c /IC:\projects\Cocos\TENG3\cocos2d\cocos\2d\..\..\ /IC:\projects\Cocos\TENG3\cocos2d\cocos\2d\..\..\cocos\audio\include /I"C:\projects\Cocos\TENG3\cocos2d\cocos\2d\..\..\cocos\editor-support" /IC:\projects\Cocos\TENG3\cocos2d\cocos\2d\..\..\extensions /I"C:\projects\Cocos\TENG3\cocos2d\cocos\2d\..\..\cocos\editor-support" /IC:\projects\Cocos\TENG3\cocos2d\cocos\2d\..\..\cocos /IC:\projects\Cocos\TENG3\cocos2d\cocos\2d\..\..\cocos\platform /IC:\projects\Cocos\TENG3\cocos2d\cocos\2d\..\..\cocos\platform\desktop /IC:\projects\Cocos\TENG3\cocos2d\cocos\2d\..\..\external\glfw3\include\win32 /I"C:\projects\Cocos\TENG3\cocos2d\cocos\2d\..\..\external\win32-specific\gles\include\OGLES" /ZI /nologo /W3 /WX- /Od /Oy- /D WIN32 /D _DEBUG /D _WINDOWS /D _LIB /D COCOS2DXWIN32_EXPORTS /D GL_GLEXT_PROTOTYPES /D COCOS2D_DEBUG=1 /D _CRT_SECURE_NO_WARNINGS /D _SCL_SECURE_NO_WARNINGS /D _VARIADIC_MAX=10 /D _USING_V110_SDK71_ /D _UNICODE /D UNICODE /Gm- /EHsc /RTC1 /MDd /GS /fp:precise /Zc:wchar_t /Zc:forScope /Fo"DEBUG.WIN32\\" /Fd"DEBUG.WIN32\VC120.PDB" /Gd /TC /wd4267 /wd4251 /wd4244 /analyze- C:\PROJECTS\COCOS\TENG3\COCOS2D\COCOS\EDITOR-SUPPORT\SPINE\BOUNDINGBOXATTACHMENT.C
^C:\PROJECTS\COCOS\TENG3\COCOS2D\COCOS\EDITOR-SUPPORT\SPINE\EVENT.C
/c /IC:\projects\Cocos\TENG3\cocos2d\cocos\2d\..\..\ /IC:\projects\Cocos\TENG3\cocos2d\cocos\2d\..\..\cocos\audio\include /I"C:\projects\Cocos\TENG3\cocos2d\cocos\2d\..\..\cocos\editor-support" /IC:\projects\Cocos\TENG3\cocos2d\cocos\2d\..\..\extensions /I"C:\projects\Cocos\TENG3\cocos2d\cocos\2d\..\..\cocos\editor-support" /IC:\projects\Cocos\TENG3\cocos2d\cocos\2d\..\..\cocos /IC:\projects\Cocos\TENG3\cocos2d\cocos\2d\..\..\cocos\platform /IC:\projects\Cocos\TENG3\cocos2d\cocos\2d\..\..\cocos\platform\desktop /IC:\projects\Cocos\TENG3\cocos2d\cocos\2d\..\..\external\glfw3\include\win32 /I"C:\projects\Cocos\TENG3\cocos2d\cocos\2d\..\..\external\win32-specific\gles\include\OGLES" /ZI /nologo /W3 /WX- /Od /Oy- /D WIN32 /D _DEBUG /D _WINDOWS /D _LIB /D COCOS2DXWIN32_EXPORTS /D GL_GLEXT_PROTOTYPES /D COCOS2D_DEBUG=1 /D _CRT_SECURE_NO_WARNINGS /D _SCL_SECURE_NO_WARNINGS /D _VARIADIC_MAX=10 /D _USING_V110_SDK71_ /D _UNICODE /D UNICODE /Gm- /EHsc /RTC1 /MDd /GS /fp:precise /Zc:wchar_t /Zc:forScope /Fo"DEBUG.WIN32\\" /Fd"DEBUG.WIN32\VC120.PDB" /Gd /TC /wd4267 /wd4251 /wd4244 /analyze- C:\PROJECTS\COCOS\TENG3\COCOS2D\COCOS\EDITOR-SUPPORT\SPINE\EVENT.C
^C:\PROJECTS\COCOS\TENG3\COCOS2D\COCOS\EDITOR-SUPPORT\SPINE\EVENTDATA.C
/c /IC:\projects\Cocos\TENG3\cocos2d\cocos\2d\..\..\ /IC:\projects\Cocos\TENG3\cocos2d\cocos\2d\..\..\cocos\audio\include /I"C:\projects\Cocos\TENG3\cocos2d\cocos\2d\..\..\cocos\editor-support" /IC:\projects\Cocos\TENG3\cocos2d\cocos\2d\..\..\extensions /I"C:\projects\Cocos\TENG3\cocos2d\cocos\2d\..\..\cocos\editor-support" /IC:\projects\Cocos\TENG3\cocos2d\cocos\2d\..\..\cocos /IC:\projects\Cocos\TENG3\cocos2d\cocos\2d\..\..\cocos\platform /IC:\projects\Cocos\TENG3\cocos2d\cocos\2d\..\..\cocos\platform\desktop /IC:\projects\Cocos\TENG3\cocos2d\cocos\2d\..\..\external\glfw3\include\win32 /I"C:\projects\Cocos\TENG3\cocos2d\cocos\2d\..\..\external\win32-specific\gles\include\OGLES" /ZI /nologo /W3 /WX- /Od /Oy- /D WIN32 /D _DEBUG /D _WINDOWS /D _LIB /D COCOS2DXWIN32_EXPORTS /D GL_GLEXT_PROTOTYPES /D COCOS2D_DEBUG=1 /D _CRT_SECURE_NO_WARNINGS /D _SCL_SECURE_NO_WARNINGS /D _VARIADIC_MAX=10 /D _USING_V110_SDK71_ /D _UNICODE /D UNICODE /Gm- /EHsc /RTC1 /MDd /GS /fp:precise /Zc:wchar_t /Zc:forScope /Fo"DEBUG.WIN32\\" /Fd"DEBUG.WIN32\VC120.PDB" /Gd /TC /wd4267 /wd4251 /wd4244 /analyze- C:\PROJECTS\COCOS\TENG3\COCOS2D\COCOS\EDITOR-SUPPORT\SPINE\EVENTDATA.C
^C:\PROJECTS\COCOS\TENG3\COCOS2D\COCOS\EDITOR-SUPPORT\SPINE\EXTENSION.C
/c /IC:\projects\Cocos\TENG3\cocos2d\cocos\2d\..\..\ /IC:\projects\Cocos\TENG3\cocos2d\cocos\2d\..\..\cocos\audio\include /I"C:\projects\Cocos\TENG3\cocos2d\cocos\2d\..\..\cocos\editor-support" /IC:\projects\Cocos\TENG3\cocos2d\cocos\2d\..\..\extensions /I"C:\projects\Cocos\TENG3\cocos2d\cocos\2d\..\..\cocos\editor-support" /IC:\projects\Cocos\TENG3\cocos2d\cocos\2d\..\..\cocos /IC:\projects\Cocos\TENG3\cocos2d\cocos\2d\..\..\cocos\platform /IC:\projects\Cocos\TENG3\cocos2d\cocos\2d\..\..\cocos\platform\desktop /IC:\projects\Cocos\TENG3\cocos2d\cocos\2d\..\..\external\glfw3\include\win32 /I"C:\projects\Cocos\TENG3\cocos2d\cocos\2d\..\..\external\win32-specific\gles\include\OGLES" /ZI /nologo /W3 /WX- /Od /Oy- /D WIN32 /D _DEBUG /D _WINDOWS /D _LIB /D COCOS2DXWIN32_EXPORTS /D GL_GLEXT_PROTOTYPES /D COCOS2D_DEBUG=1 /D _CRT_SECURE_NO_WARNINGS /D _SCL_SECURE_NO_WARNINGS /D _VARIADIC_MAX=10 /D _USING_V110_SDK71_ /D _UNICODE /D UNICODE /Gm- /EHsc /RTC1 /MDd /GS /fp:precise /Zc:wchar_t /Zc:forScope /Fo"DEBUG.WIN32\\" /Fd"DEBUG.WIN32\VC120.PDB" /Gd /TC /wd4267 /wd4251 /wd4244 /analyze- C:\PROJECTS\COCOS\TENG3\COCOS2D\COCOS\EDITOR-SUPPORT\SPINE\EXTENSION.C
^C:\PROJECTS\COCOS\TENG3\COCOS2D\COCOS\EDITOR-SUPPORT\SPINE\IKCONSTRAINT.C
/c /IC:\projects\Cocos\TENG3\cocos2d\cocos\2d\..\..\ /IC:\projects\Cocos\TENG3\cocos2d\cocos\2d\..\..\cocos\audio\include /I"C:\projects\Cocos\TENG3\cocos2d\cocos\2d\..\..\cocos\editor-support" /IC:\projects\Cocos\TENG3\cocos2d\cocos\2d\..\..\extensions /I"C:\projects\Cocos\TENG3\cocos2d\cocos\2d\..\..\cocos\editor-support" /IC:\projects\Cocos\TENG3\cocos2d\cocos\2d\..\..\cocos /IC:\projects\Cocos\TENG3\cocos2d\cocos\2d\..\..\cocos\platform /IC:\projects\Cocos\TENG3\cocos2d\cocos\2d\..\..\cocos\platform\desktop /IC:\projects\Cocos\TENG3\cocos2d\cocos\2d\..\..\external\glfw3\include\win32 /I"C:\projects\Cocos\TENG3\cocos2d\cocos\2d\..\..\external\win32-specific\gles\include\OGLES" /ZI /nologo /W3 /WX- /Od /Oy- /D WIN32 /D _DEBUG /D _WINDOWS /D _LIB /D COCOS2DXWIN32_EXPORTS /D GL_GLEXT_PROTOTYPES /D COCOS2D_DEBUG=1 /D _CRT_SECURE_NO_WARNINGS /D _SCL_SECURE_NO_WARNINGS /D _VARIADIC_MAX=10 /D _USING_V110_SDK71_ /D _UNICODE /D UNICODE /Gm- /EHsc /RTC1 /MDd /GS /fp:precise /Zc:wchar_t /Zc:forScope /Fo"DEBUG.WIN32\\" /Fd"DEBUG.WIN32\VC120.PDB" /Gd /TC /wd4267 /wd4251 /wd4244 /analyze- C:\PROJECTS\COCOS\TENG3\COCOS2D\COCOS\EDITOR-SUPPORT\SPINE\IKCONSTRAINT.C
^C:\PROJECTS\COCOS\TENG3\COCOS2D\COCOS\EDITOR-SUPPORT\SPINE\IKCONSTRAINTDATA.C
/c /IC:\projects\Cocos\TENG3\cocos2d\cocos\2d\..\..\ /IC:\projects\Cocos\TENG3\cocos2d\cocos\2d\..\..\cocos\audio\include /I"C:\projects\Cocos\TENG3\cocos2d\cocos\2d\..\..\cocos\editor-support" /IC:\projects\Cocos\TENG3\cocos2d\cocos\2d\..\..\extensions /I"C:\projects\Cocos\TENG3\cocos2d\cocos\2d\..\..\cocos\editor-support" /IC:\projects\Cocos\TENG3\cocos2d\cocos\2d\..\..\cocos /IC:\projects\Cocos\TENG3\cocos2d\cocos\2d\..\..\cocos\platform /IC:\projects\Cocos\TENG3\cocos2d\cocos\2d\..\..\cocos\platform\desktop /IC:\projects\Cocos\TENG3\cocos2d\cocos\2d\..\..\external\glfw3\include\win32 /I"C:\projects\Cocos\TENG3\cocos2d\cocos\2d\..\..\external\win32-specific\gles\include\OGLES" /ZI /nologo /W3 /WX- /Od /Oy- /D WIN32 /D _DEBUG /D _WINDOWS /D _LIB /D COCOS2DXWIN32_EXPORTS /D GL_GLEXT_PROTOTYPES /D COCOS2D_DEBUG=1 /D _CRT_SECURE_NO_WARNINGS /D _SCL_SECURE_NO_WARNINGS /D _VARIADIC_MAX=10 /D _USING_V110_SDK71_ /D _UNICODE /D UNICODE /Gm- /EHsc /RTC1 /MDd /GS /fp:precise /Zc:wchar_t /Zc:forScope /Fo"DEBUG.WIN32\\" /Fd"DEBUG.WIN32\VC120.PDB" /Gd /TC /wd4267 /wd4251 /wd4244 /analyze- C:\PROJECTS\COCOS\TENG3\COCOS2D\COCOS\EDITOR-SUPPORT\SPINE\IKCONSTRAINTDATA.C
^C:\PROJECTS\COCOS\TENG3\COCOS2D\COCOS\EDITOR-SUPPORT\SPINE\JSON.C
/c /IC:\projects\Cocos\TENG3\cocos2d\cocos\2d\..\..\ /IC:\projects\Cocos\TENG3\cocos2d\cocos\2d\..\..\cocos\audio\include /I"C:\projects\Cocos\TENG3\cocos2d\cocos\2d\..\..\cocos\editor-support" /IC:\projects\Cocos\TENG3\cocos2d\cocos\2d\..\..\extensions /I"C:\projects\Cocos\TENG3\cocos2d\cocos\2d\..\..\cocos\editor-support" /IC:\projects\Cocos\TENG3\cocos2d\cocos\2d\..\..\cocos /IC:\projects\Cocos\TENG3\cocos2d\cocos\2d\..\..\cocos\platform /IC:\projects\Cocos\TENG3\cocos2d\cocos\2d\..\..\cocos\platform\desktop /IC:\projects\Cocos\TENG3\cocos2d\cocos\2d\..\..\external\glfw3\include\win32 /I"C:\projects\Cocos\TENG3\cocos2d\cocos\2d\..\..\external\win32-specific\gles\include\OGLES" /ZI /nologo /W3 /WX- /Od /Oy- /D WIN32 /D _DEBUG /D _WINDOWS /D _LIB /D COCOS2DXWIN32_EXPORTS /D GL_GLEXT_PROTOTYPES /D COCOS2D_DEBUG=1 /D _CRT_SECURE_NO_WARNINGS /D _SCL_SECURE_NO_WARNINGS /D _VARIADIC_MAX=10 /D _USING_V110_SDK71_ /D _UNICODE /D UNICODE /Gm- /EHsc /RTC1 /MDd /GS /fp:precise /Zc:wchar_t /Zc:forScope /Fo"DEBUG.WIN32\\" /Fd"DEBUG.WIN32\VC120.PDB" /Gd /TC /wd4267 /wd4251 /wd4244 /analyze- C:\PROJECTS\COCOS\TENG3\COCOS2D\COCOS\EDITOR-SUPPORT\SPINE\JSON.C
^C:\PROJECTS\COCOS\TENG3\COCOS2D\COCOS\EDITOR-SUPPORT\SPINE\MESHATTACHMENT.C
/c /IC:\projects\Cocos\TENG3\cocos2d\cocos\2d\..\..\ /IC:\projects\Cocos\TENG3\cocos2d\cocos\2d\..\..\cocos\audio\include /I"C:\projects\Cocos\TENG3\cocos2d\cocos\2d\..\..\cocos\editor-support" /IC:\projects\Cocos\TENG3\cocos2d\cocos\2d\..\..\extensions /I"C:\projects\Cocos\TENG3\cocos2d\cocos\2d\..\..\cocos\editor-support" /IC:\projects\Cocos\TENG3\cocos2d\cocos\2d\..\..\cocos /IC:\projects\Cocos\TENG3\cocos2d\cocos\2d\..\..\cocos\platform /IC:\projects\Cocos\TENG3\cocos2d\cocos\2d\..\..\cocos\platform\desktop /IC:\projects\Cocos\TENG3\cocos2d\cocos\2d\..\..\external\glfw3\include\win32 /I"C:\projects\Cocos\TENG3\cocos2d\cocos\2d\..\..\external\win32-specific\gles\include\OGLES" /ZI /nologo /W3 /WX- /Od /Oy- /D WIN32 /D _DEBUG /D _WINDOWS /D _LIB /D COCOS2DXWIN32_EXPORTS /D GL_GLEXT_PROTOTYPES /D COCOS2D_DEBUG=1 /D _CRT_SECURE_NO_WARNINGS /D _SCL_SECURE_NO_WARNINGS /D _VARIADIC_MAX=10 /D _USING_V110_SDK71_ /D _UNICODE /D UNICODE /Gm- /EHsc /RTC1 /MDd /GS /fp:precise /Zc:wchar_t /Zc:forScope /Fo"DEBUG.WIN32\\" /Fd"DEBUG.WIN32\VC120.PDB" /Gd /TC /wd4267 /wd4251 /wd4244 /analyze- C:\PROJECTS\COCOS\TENG3\COCOS2D\COCOS\EDITOR-SUPPORT\SPINE\MESHATTACHMENT.C
^C:\PROJECTS\COCOS\TENG3\COCOS2D\COCOS\EDITOR-SUPPORT\SPINE\REGIONATTACHMENT.C
/c /IC:\projects\Cocos\TENG3\cocos2d\cocos\2d\..\..\ /IC:\projects\Cocos\TENG3\cocos2d\cocos\2d\..\..\cocos\audio\include /I"C:\projects\Cocos\TENG3\cocos2d\cocos\2d\..\..\cocos\editor-support" /IC:\projects\Cocos\TENG3\cocos2d\cocos\2d\..\..\extensions /I"C:\projects\Cocos\TENG3\cocos2d\cocos\2d\..\..\cocos\editor-support" /IC:\projects\Cocos\TENG3\cocos2d\cocos\2d\..\..\cocos /IC:\projects\Cocos\TENG3\cocos2d\cocos\2d\..\..\cocos\platform /IC:\projects\Cocos\TENG3\cocos2d\cocos\2d\..\..\cocos\platform\desktop /IC:\projects\Cocos\TENG3\cocos2d\cocos\2d\..\..\external\glfw3\include\win32 /I"C:\projects\Cocos\TENG3\cocos2d\cocos\2d\..\..\external\win32-specific\gles\include\OGLES" /ZI /nologo /W3 /WX- /Od /Oy- /D WIN32 /D _DEBUG /D _WINDOWS /D _LIB /D COCOS2DXWIN32_EXPORTS /D GL_GLEXT_PROTOTYPES /D COCOS2D_DEBUG=1 /D _CRT_SECURE_NO_WARNINGS /D _SCL_SECURE_NO_WARNINGS /D _VARIADIC_MAX=10 /D _USING_V110_SDK71_ /D _UNICODE /D UNICODE /Gm- /EHsc /RTC1 /MDd /GS /fp:precise /Zc:wchar_t /Zc:forScope /Fo"DEBUG.WIN32\\" /Fd"DEBUG.WIN32\VC120.PDB" /Gd /TC /wd4267 /wd4251 /wd4244 /analyze- C:\PROJECTS\COCOS\TENG3\COCOS2D\COCOS\EDITOR-SUPPORT\SPINE\REGIONATTACHMENT.C
^C:\PROJECTS\COCOS\TENG3\COCOS2D\COCOS\EDITOR-SUPPORT\SPINE\SKELETON.C
/c /IC:\projects\Cocos\TENG3\cocos2d\cocos\2d\..\..\ /IC:\projects\Cocos\TENG3\cocos2d\cocos\2d\..\..\cocos\audio\include /I"C:\projects\Cocos\TENG3\cocos2d\cocos\2d\..\..\cocos\editor-support" /IC:\projects\Cocos\TENG3\cocos2d\cocos\2d\..\..\extensions /I"C:\projects\Cocos\TENG3\cocos2d\cocos\2d\..\..\cocos\editor-support" /IC:\projects\Cocos\TENG3\cocos2d\cocos\2d\..\..\cocos /IC:\projects\Cocos\TENG3\cocos2d\cocos\2d\..\..\cocos\platform /IC:\projects\Cocos\TENG3\cocos2d\cocos\2d\..\..\cocos\platform\desktop /IC:\projects\Cocos\TENG3\cocos2d\cocos\2d\..\..\external\glfw3\include\win32 /I"C:\projects\Cocos\TENG3\cocos2d\cocos\2d\..\..\external\win32-specific\gles\include\OGLES" /ZI /nologo /W3 /WX- /Od /Oy- /D WIN32 /D _DEBUG /D _WINDOWS /D _LIB /D COCOS2DXWIN32_EXPORTS /D GL_GLEXT_PROTOTYPES /D COCOS2D_DEBUG=1 /D _CRT_SECURE_NO_WARNINGS /D _SCL_SECURE_NO_WARNINGS /D _VARIADIC_MAX=10 /D _USING_V110_SDK71_ /D _UNICODE /D UNICODE /Gm- /EHsc /RTC1 /MDd /GS /fp:precise /Zc:wchar_t /Zc:forScope /Fo"DEBUG.WIN32\\" /Fd"DEBUG.WIN32\VC120.PDB" /Gd /TC /wd4267 /wd4251 /wd4244 /analyze- C:\PROJECTS\COCOS\TENG3\COCOS2D\COCOS\EDITOR-SUPPORT\SPINE\SKELETON.C
^C:\PROJECTS\COCOS\TENG3\COCOS2D\COCOS\EDITOR-SUPPORT\SPINE\SKELETONBOUNDS.C
/c /IC:\projects\Cocos\TENG3\cocos2d\cocos\2d\..\..\ /IC:\projects\Cocos\TENG3\cocos2d\cocos\2d\..\..\cocos\audio\include /I"C:\projects\Cocos\TENG3\cocos2d\cocos\2d\..\..\cocos\editor-support" /IC:\projects\Cocos\TENG3\cocos2d\cocos\2d\..\..\extensions /I"C:\projects\Cocos\TENG3\cocos2d\cocos\2d\..\..\cocos\editor-support" /IC:\projects\Cocos\TENG3\cocos2d\cocos\2d\..\..\cocos /IC:\projects\Cocos\TENG3\cocos2d\cocos\2d\..\..\cocos\platform /IC:\projects\Cocos\TENG3\cocos2d\cocos\2d\..\..\cocos\platform\desktop /IC:\projects\Cocos\TENG3\cocos2d\cocos\2d\..\..\external\glfw3\include\win32 /I"C:\projects\Cocos\TENG3\cocos2d\cocos\2d\..\..\external\win32-specific\gles\include\OGLES" /ZI /nologo /W3 /WX- /Od /Oy- /D WIN32 /D _DEBUG /D _WINDOWS /D _LIB /D COCOS2DXWIN32_EXPORTS /D GL_GLEXT_PROTOTYPES /D COCOS2D_DEBUG=1 /D _CRT_SECURE_NO_WARNINGS /D _SCL_SECURE_NO_WARNINGS /D _VARIADIC_MAX=10 /D _USING_V110_SDK71_ /D _UNICODE /D UNICODE /Gm- /EHsc /RTC1 /MDd /GS /fp:precise /Zc:wchar_t /Zc:forScope /Fo"DEBUG.WIN32\\" /Fd"DEBUG.WIN32\VC120.PDB" /Gd /TC /wd4267 /wd4251 /wd4244 /analyze- C:\PROJECTS\COCOS\TENG3\COCOS2D\COCOS\EDITOR-SUPPORT\SPINE\SKELETONBOUNDS.C
^C:\PROJECTS\COCOS\TENG3\COCOS2D\COCOS\EDITOR-SUPPORT\SPINE\SKELETONDATA.C
/c /IC:\projects\Cocos\TENG3\cocos2d\cocos\2d\..\..\ /IC:\projects\Cocos\TENG3\cocos2d\cocos\2d\..\..\cocos\audio\include /I"C:\projects\Cocos\TENG3\cocos2d\cocos\2d\..\..\cocos\editor-support" /IC:\projects\Cocos\TENG3\cocos2d\cocos\2d\..\..\extensions /I"C:\projects\Cocos\TENG3\cocos2d\cocos\2d\..\..\cocos\editor-support" /IC:\projects\Cocos\TENG3\cocos2d\cocos\2d\..\..\cocos /IC:\projects\Cocos\TENG3\cocos2d\cocos\2d\..\..\cocos\platform /IC:\projects\Cocos\TENG3\cocos2d\cocos\2d\..\..\cocos\platform\desktop /IC:\projects\Cocos\TENG3\cocos2d\cocos\2d\..\..\external\glfw3\include\win32 /I"C:\projects\Cocos\TENG3\cocos2d\cocos\2d\..\..\external\win32-specific\gles\include\OGLES" /ZI /nologo /W3 /WX- /Od /Oy- /D WIN32 /D _DEBUG /D _WINDOWS /D _LIB /D COCOS2DXWIN32_EXPORTS /D GL_GLEXT_PROTOTYPES /D COCOS2D_DEBUG=1 /D _CRT_SECURE_NO_WARNINGS /D _SCL_SECURE_NO_WARNINGS /D _VARIADIC_MAX=10 /D _USING_V110_SDK71_ /D _UNICODE /D UNICODE /Gm- /EHsc /RTC1 /MDd /GS /fp:precise /Zc:wchar_t /Zc:forScope /Fo"DEBUG.WIN32\\" /Fd"DEBUG.WIN32\VC120.PDB" /Gd /TC /wd4267 /wd4251 /wd4244 /analyze- C:\PROJECTS\COCOS\TENG3\COCOS2D\COCOS\EDITOR-SUPPORT\SPINE\SKELETONDATA.C
^C:\PROJECTS\COCOS\TENG3\COCOS2D\COCOS\EDITOR-SUPPORT\SPINE\SKELETONJSON.C
/c /IC:\projects\Cocos\TENG3\cocos2d\cocos\2d\..\..\ /IC:\projects\Cocos\TENG3\cocos2d\cocos\2d\..\..\cocos\audio\include /I"C:\projects\Cocos\TENG3\cocos2d\cocos\2d\..\..\cocos\editor-support" /IC:\projects\Cocos\TENG3\cocos2d\cocos\2d\..\..\extensions /I"C:\projects\Cocos\TENG3\cocos2d\cocos\2d\..\..\cocos\editor-support" /IC:\projects\Cocos\TENG3\cocos2d\cocos\2d\..\..\cocos /IC:\projects\Cocos\TENG3\cocos2d\cocos\2d\..\..\cocos\platform /IC:\projects\Cocos\TENG3\cocos2d\cocos\2d\..\..\cocos\platform\desktop /IC:\projects\Cocos\TENG3\cocos2d\cocos\2d\..\..\external\glfw3\include\win32 /I"C:\projects\Cocos\TENG3\cocos2d\cocos\2d\..\..\external\win32-specific\gles\include\OGLES" /ZI /nologo /W3 /WX- /Od /Oy- /D WIN32 /D _DEBUG /D _WINDOWS /D _LIB /D COCOS2DXWIN32_EXPORTS /D GL_GLEXT_PROTOTYPES /D COCOS2D_DEBUG=1 /D _CRT_SECURE_NO_WARNINGS /D _SCL_SECURE_NO_WARNINGS /D _VARIADIC_MAX=10 /D _USING_V110_SDK71_ /D _UNICODE /D UNICODE /Gm- /EHsc /RTC1 /MDd /GS /fp:precise /Zc:wchar_t /Zc:forScope /Fo"DEBUG.WIN32\\" /Fd"DEBUG.WIN32\VC120.PDB" /Gd /TC /wd4267 /wd4251 /wd4244 /analyze- C:\PROJECTS\COCOS\TENG3\COCOS2D\COCOS\EDITOR-SUPPORT\SPINE\SKELETONJSON.C
^C:\PROJECTS\COCOS\TENG3\COCOS2D\COCOS\EDITOR-SUPPORT\SPINE\SKIN.C
/c /IC:\projects\Cocos\TENG3\cocos2d\cocos\2d\..\..\ /IC:\projects\Cocos\TENG3\cocos2d\cocos\2d\..\..\cocos\audio\include /I"C:\projects\Cocos\TENG3\cocos2d\cocos\2d\..\..\cocos\editor-support" /IC:\projects\Cocos\TENG3\cocos2d\cocos\2d\..\..\extensions /I"C:\projects\Cocos\TENG3\cocos2d\cocos\2d\..\..\cocos\editor-support" /IC:\projects\Cocos\TENG3\cocos2d\cocos\2d\..\..\cocos /IC:\projects\Cocos\TENG3\cocos2d\cocos\2d\..\..\cocos\platform /IC:\projects\Cocos\TENG3\cocos2d\cocos\2d\..\..\cocos\platform\desktop /IC:\projects\Cocos\TENG3\cocos2d\cocos\2d\..\..\external\glfw3\include\win32 /I"C:\projects\Cocos\TENG3\cocos2d\cocos\2d\..\..\external\win32-specific\gles\include\OGLES" /ZI /nologo /W3 /WX- /Od /Oy- /D WIN32 /D _DEBUG /D _WINDOWS /D _LIB /D COCOS2DXWIN32_EXPORTS /D GL_GLEXT_PROTOTYPES /D COCOS2D_DEBUG=1 /D _CRT_SECURE_NO_WARNINGS /D _SCL_SECURE_NO_WARNINGS /D _VARIADIC_MAX=10 /D _USING_V110_SDK71_ /D _UNICODE /D UNICODE /Gm- /EHsc /RTC1 /MDd /GS /fp:precise /Zc:wchar_t /Zc:forScope /Fo"DEBUG.WIN32\\" /Fd"DEBUG.WIN32\VC120.PDB" /Gd /TC /wd4267 /wd4251 /wd4244 /analyze- C:\PROJECTS\COCOS\TENG3\COCOS2D\COCOS\EDITOR-SUPPORT\SPINE\SKIN.C
^C:\PROJECTS\COCOS\TENG3\COCOS2D\COCOS\EDITOR-SUPPORT\SPINE\SKINNEDMESHATTACHMENT.C
/c /IC:\projects\Cocos\TENG3\cocos2d\cocos\2d\..\..\ /IC:\projects\Cocos\TENG3\cocos2d\cocos\2d\..\..\cocos\audio\include /I"C:\projects\Cocos\TENG3\cocos2d\cocos\2d\..\..\cocos\editor-support" /IC:\projects\Cocos\TENG3\cocos2d\cocos\2d\..\..\extensions /I"C:\projects\Cocos\TENG3\cocos2d\cocos\2d\..\..\cocos\editor-support" /IC:\projects\Cocos\TENG3\cocos2d\cocos\2d\..\..\cocos /IC:\projects\Cocos\TENG3\cocos2d\cocos\2d\..\..\cocos\platform /IC:\projects\Cocos\TENG3\cocos2d\cocos\2d\..\..\cocos\platform\desktop /IC:\projects\Cocos\TENG3\cocos2d\cocos\2d\..\..\external\glfw3\include\win32 /I"C:\projects\Cocos\TENG3\cocos2d\cocos\2d\..\..\external\win32-specific\gles\include\OGLES" /ZI /nologo /W3 /WX- /Od /Oy- /D WIN32 /D _DEBUG /D _WINDOWS /D _LIB /D COCOS2DXWIN32_EXPORTS /D GL_GLEXT_PROTOTYPES /D COCOS2D_DEBUG=1 /D _CRT_SECURE_NO_WARNINGS /D _SCL_SECURE_NO_WARNINGS /D _VARIADIC_MAX=10 /D _USING_V110_SDK71_ /D _UNICODE /D UNICODE /Gm- /EHsc /RTC1 /MDd /GS /fp:precise /Zc:wchar_t /Zc:forScope /Fo"DEBUG.WIN32\\" /Fd"DEBUG.WIN32\VC120.PDB" /Gd /TC /wd4267 /wd4251 /wd4244 /analyze- C:\PROJECTS\COCOS\TENG3\COCOS2D\COCOS\EDITOR-SUPPORT\SPINE\SKINNEDMESHATTACHMENT.C
^C:\PROJECTS\COCOS\TENG3\COCOS2D\COCOS\EDITOR-SUPPORT\SPINE\SLOT.C
/c /IC:\projects\Cocos\TENG3\cocos2d\cocos\2d\..\..\ /IC:\projects\Cocos\TENG3\cocos2d\cocos\2d\..\..\cocos\audio\include /I"C:\projects\Cocos\TENG3\cocos2d\cocos\2d\..\..\cocos\editor-support" /IC:\projects\Cocos\TENG3\cocos2d\cocos\2d\..\..\extensions /I"C:\projects\Cocos\TENG3\cocos2d\cocos\2d\..\..\cocos\editor-support" /IC:\projects\Cocos\TENG3\cocos2d\cocos\2d\..\..\cocos /IC:\projects\Cocos\TENG3\cocos2d\cocos\2d\..\..\cocos\platform /IC:\projects\Cocos\TENG3\cocos2d\cocos\2d\..\..\cocos\platform\desktop /IC:\projects\Cocos\TENG3\cocos2d\cocos\2d\..\..\external\glfw3\include\win32 /I"C:\projects\Cocos\TENG3\cocos2d\cocos\2d\..\..\external\win32-specific\gles\include\OGLES" /ZI /nologo /W3 /WX- /Od /Oy- /D WIN32 /D _DEBUG /D _WINDOWS /D _LIB /D COCOS2DXWIN32_EXPORTS /D GL_GLEXT_PROTOTYPES /D COCOS2D_DEBUG=1 /D _CRT_SECURE_NO_WARNINGS /D _SCL_SECURE_NO_WARNINGS /D _VARIADIC_MAX=10 /D _USING_V110_SDK71_ /D _UNICODE /D UNICODE /Gm- /EHsc /RTC1 /MDd /GS /fp:precise /Zc:wchar_t /Zc:forScope /Fo"DEBUG.WIN32\\" /Fd"DEBUG.WIN32\VC120.PDB" /Gd /TC /wd4267 /wd4251 /wd4244 /analyze- C:\PROJECTS\COCOS\TENG3\COCOS2D\COCOS\EDITOR-SUPPORT\SPINE\SLOT.C
^C:\PROJECTS\COCOS\TENG3\COCOS2D\COCOS\EDITOR-SUPPORT\SPINE\SLOTDATA.C
/c /IC:\projects\Cocos\TENG3\cocos2d\cocos\2d\..\..\ /IC:\projects\Cocos\TENG3\cocos2d\cocos\2d\..\..\cocos\audio\include /I"C:\projects\Cocos\TENG3\cocos2d\cocos\2d\..\..\cocos\editor-support" /IC:\projects\Cocos\TENG3\cocos2d\cocos\2d\..\..\extensions /I"C:\projects\Cocos\TENG3\cocos2d\cocos\2d\..\..\cocos\editor-support" /IC:\projects\Cocos\TENG3\cocos2d\cocos\2d\..\..\cocos /IC:\projects\Cocos\TENG3\cocos2d\cocos\2d\..\..\cocos\platform /IC:\projects\Cocos\TENG3\cocos2d\cocos\2d\..\..\cocos\platform\desktop /IC:\projects\Cocos\TENG3\cocos2d\cocos\2d\..\..\external\glfw3\include\win32 /I"C:\projects\Cocos\TENG3\cocos2d\cocos\2d\..\..\external\win32-specific\gles\include\OGLES" /ZI /nologo /W3 /WX- /Od /Oy- /D WIN32 /D _DEBUG /D _WINDOWS /D _LIB /D COCOS2DXWIN32_EXPORTS /D GL_GLEXT_PROTOTYPES /D COCOS2D_DEBUG=1 /D _CRT_SECURE_NO_WARNINGS /D _SCL_SECURE_NO_WARNINGS /D _VARIADIC_MAX=10 /D _USING_V110_SDK71_ /D _UNICODE /D UNICODE /Gm- /EHsc /RTC1 /MDd /GS /fp:precise /Zc:wchar_t /Zc:forScope /Fo"DEBUG.WIN32\\" /Fd"DEBUG.WIN32\VC120.PDB" /Gd /TC /wd4267 /wd4251 /wd4244 /analyze- C:\PROJECTS\COCOS\TENG3\COCOS2D\COCOS\EDITOR-SUPPORT\SPINE\SLOTDATA.C
^C:\PROJECTS\COCOS\TENG3\COCOS2D\COCOS\EDITOR-SUPPORT\SPINE\POLYGONBATCH.CPP
/c /IC:\projects\Cocos\TENG3\cocos2d\cocos\2d\..\..\ /IC:\projects\Cocos\TENG3\cocos2d\cocos\2d\..\..\cocos\audio\include /I"C:\projects\Cocos\TENG3\cocos2d\cocos\2d\..\..\cocos\editor-support" /IC:\projects\Cocos\TENG3\cocos2d\cocos\2d\..\..\extensions /I"C:\projects\Cocos\TENG3\cocos2d\cocos\2d\..\..\cocos\editor-support" /IC:\projects\Cocos\TENG3\cocos2d\cocos\2d\..\..\cocos /IC:\projects\Cocos\TENG3\cocos2d\cocos\2d\..\..\cocos\platform /IC:\projects\Cocos\TENG3\cocos2d\cocos\2d\..\..\cocos\platform\desktop /IC:\projects\Cocos\TENG3\cocos2d\cocos\2d\..\..\external\glfw3\include\win32 /I"C:\projects\Cocos\TENG3\cocos2d\cocos\2d\..\..\external\win32-specific\gles\include\OGLES" /ZI /nologo /W3 /WX- /Od /Oy- /D WIN32 /D _DEBUG /D _WINDOWS /D _LIB /D COCOS2DXWIN32_EXPORTS /D GL_GLEXT_PROTOTYPES /D COCOS2D_DEBUG=1 /D _CRT_SECURE_NO_WARNINGS /D _SCL_SECURE_NO_WARNINGS /D _VARIADIC_MAX=10 /D _USING_V110_SDK71_ /D _UNICODE /D UNICODE /Gm- /EHsc /RTC1 /MDd /GS /fp:precise /Zc:wchar_t /Zc:forScope /Fo"DEBUG.WIN32\\" /Fd"DEBUG.WIN32\VC120.PDB" /Gd /TP /wd4267 /wd4251 /wd4244 /analyze- C:\PROJECTS\COCOS\TENG3\COCOS2D\COCOS\EDITOR-SUPPORT\SPINE\POLYGONBATCH.CPP
^C:\PROJECTS\COCOS\TENG3\COCOS2D\COCOS\EDITOR-SUPPORT\SPINE\SKELETONANIMATION.CPP
/c /IC:\projects\Cocos\TENG3\cocos2d\cocos\2d\..\..\ /IC:\projects\Cocos\TENG3\cocos2d\cocos\2d\..\..\cocos\audio\include /I"C:\projects\Cocos\TENG3\cocos2d\cocos\2d\..\..\cocos\editor-support" /IC:\projects\Cocos\TENG3\cocos2d\cocos\2d\..\..\extensions /I"C:\projects\Cocos\TENG3\cocos2d\cocos\2d\..\..\cocos\editor-support" /IC:\projects\Cocos\TENG3\cocos2d\cocos\2d\..\..\cocos /IC:\projects\Cocos\TENG3\cocos2d\cocos\2d\..\..\cocos\platform /IC:\projects\Cocos\TENG3\cocos2d\cocos\2d\..\..\cocos\platform\desktop /IC:\projects\Cocos\TENG3\cocos2d\cocos\2d\..\..\external\glfw3\include\win32 /I"C:\projects\Cocos\TENG3\cocos2d\cocos\2d\..\..\external\win32-specific\gles\include\OGLES" /ZI /nologo /W3 /WX- /Od /Oy- /D WIN32 /D _DEBUG /D _WINDOWS /D _LIB /D COCOS2DXWIN32_EXPORTS /D GL_GLEXT_PROTOTYPES /D COCOS2D_DEBUG=1 /D _CRT_SECURE_NO_WARNINGS /D _SCL_SECURE_NO_WARNINGS /D _VARIADIC_MAX=10 /D _USING_V110_SDK71_ /D _UNICODE /D UNICODE /Gm- /EHsc /RTC1 /MDd /GS /fp:precise /Zc:wchar_t /Zc:forScope /Fo"DEBUG.WIN32\\" /Fd"DEBUG.WIN32\VC120.PDB" /Gd /TP /wd4267 /wd4251 /wd4244 /analyze- C:\PROJECTS\COCOS\TENG3\COCOS2D\COCOS\EDITOR-SUPPORT\SPINE\SKELETONANIMATION.CPP
^C:\PROJECTS\COCOS\TENG3\COCOS2D\COCOS\EDITOR-SUPPORT\SPINE\SKELETONRENDERER.CPP
/c /IC:\projects\Cocos\TENG3\cocos2d\cocos\2d\..\..\ /IC:\projects\Cocos\TENG3\cocos2d\cocos\2d\..\..\cocos\audio\include /I"C:\projects\Cocos\TENG3\cocos2d\cocos\2d\..\..\cocos\editor-support" /IC:\projects\Cocos\TENG3\cocos2d\cocos\2d\..\..\extensions /I"C:\projects\Cocos\TENG3\cocos2d\cocos\2d\..\..\cocos\editor-support" /IC:\projects\Cocos\TENG3\cocos2d\cocos\2d\..\..\cocos /IC:\projects\Cocos\TENG3\cocos2d\cocos\2d\..\..\cocos\platform /IC:\projects\Cocos\TENG3\cocos2d\cocos\2d\..\..\cocos\platform\desktop /IC:\projects\Cocos\TENG3\cocos2d\cocos\2d\..\..\external\glfw3\include\win32 /I"C:\projects\Cocos\TENG3\cocos2d\cocos\2d\..\..\external\win32-specific\gles\include\OGLES" /ZI /nologo /W3 /WX- /Od /Oy- /D WIN32 /D _DEBUG /D _WINDOWS /D _LIB /D COCOS2DXWIN32_EXPORTS /D GL_GLEXT_PROTOTYPES /D COCOS2D_DEBUG=1 /D _CRT_SECURE_NO_WARNINGS /D _SCL_SECURE_NO_WARNINGS /D _VARIADIC_MAX=10 /D _USING_V110_SDK71_ /D _UNICODE /D UNICODE /Gm- /EHsc /RTC1 /MDd /GS /fp:precise /Zc:wchar_t /Zc:forScope /Fo"DEBUG.WIN32\\" /Fd"DEBUG.WIN32\VC120.PDB" /Gd /TP /wd4267 /wd4251 /wd4244 /analyze- C:\PROJECTS\COCOS\TENG3\COCOS2D\COCOS\EDITOR-SUPPORT\SPINE\SKELETONRENDERER.CPP
^C:\PROJECTS\COCOS\TENG3\COCOS2D\COCOS\EDITOR-SUPPORT\SPINE\SPINE-COCOS2DX.CPP
/c /IC:\projects\Cocos\TENG3\cocos2d\cocos\2d\..\..\ /IC:\projects\Cocos\TENG3\cocos2d\cocos\2d\..\..\cocos\audio\include /I"C:\projects\Cocos\TENG3\cocos2d\cocos\2d\..\..\cocos\editor-support" /IC:\projects\Cocos\TENG3\cocos2d\cocos\2d\..\..\extensions /I"C:\projects\Cocos\TENG3\cocos2d\cocos\2d\..\..\cocos\editor-support" /IC:\projects\Cocos\TENG3\cocos2d\cocos\2d\..\..\cocos /IC:\projects\Cocos\TENG3\cocos2d\cocos\2d\..\..\cocos\platform /IC:\projects\Cocos\TENG3\cocos2d\cocos\2d\..\..\cocos\platform\desktop /IC:\projects\Cocos\TENG3\cocos2d\cocos\2d\..\..\external\glfw3\include\win32 /I"C:\projects\Cocos\TENG3\cocos2d\cocos\2d\..\..\external\win32-specific\gles\include\OGLES" /ZI /nologo /W3 /WX- /Od /Oy- /D WIN32 /D _DEBUG /D _WINDOWS /D _LIB /D COCOS2DXWIN32_EXPORTS /D GL_GLEXT_PROTOTYPES /D COCOS2D_DEBUG=1 /D _CRT_SECURE_NO_WARNINGS /D _SCL_SECURE_NO_WARNINGS /D _VARIADIC_MAX=10 /D _USING_V110_SDK71_ /D _UNICODE /D UNICODE /Gm- /EHsc /RTC1 /MDd /GS /fp:precise /Zc:wchar_t /Zc:forScope /Fo"DEBUG.WIN32\\" /Fd"DEBUG.WIN32\VC120.PDB" /Gd /TP /wd4267 /wd4251 /wd4244 /analyze- C:\PROJECTS\COCOS\TENG3\COCOS2D\COCOS\EDITOR-SUPPORT\SPINE\SPINE-COCOS2DX.CPP
